[
  {
    "activityId": 1,
    "sNo":1,
    "activity": "Activity1",
    "activityCategory": "Risk",
    "date": "12/12/2022",
    "subActivities" : "Risk",
    "RPN":  "",
    "XXX" : "",
    "YYY" : "",
    "SPOC" : "",
    "mappingActivityId": null
  },
  {
    "activityId": 2,
    "sNo":null,
    "activity": "Activity1",
    "activityCategory": "Risk",
    "date": "12/01/2022",
    "subActivities" : "Risk",
    "RPN":  "",
    "XXX" : "",
    "YYY" : "",
    "SPOC" : "",
    "mappingActivityId": 1
  },
  {
    "activityId": 3,
    "sNo":2,
    "activity": "Activity1",
    "activityCategory": "Risk",
    "date": "12/01/2022",
    "subActivities" : "Risk",
    "RPN":  "",
    "XXX" : "",
    "YYY" : "",
    "SPOC" : "",
    "mappingActivityId": null
  },
  {
    "activityId": 4,
    "sNo":null,
    "activity": "Activity1",
    "activityCategory": "Risk",
    "date": "12/01/2022",
    "subActivities" : "Risk",
    "RPN":  "",
    "XXX" : "",
    "YYY" : "",
    "SPOC" : "",
    "mappingActivityId": 3
  },
  {
    "activityId": 5,
    "sNo":4,
    "activity": "Activity1",
    "activityCategory": "Risk",
    "date": "12/01/2022",
    "subActivities" : "Risk",
    "RPN":  "",
    "XXX" : "",
    "YYY" : "",
    "SPOC" : "",
    "mappingActivityId": null
  },
  {
    "activityId": 6,
    "sNo":5,
    "activity": "Activity1",
    "activityCategory": "Risk",
    "date": "12/01/2022",
    "subActivities" : "Risk",
    "RPN":  "",
    "XXX" : "",
    "YYY" : "",
    "SPOC" : "",
    "mappingActivityId": null
  },
  {
    "activityId": 7,
    "sNo":null,
    "activity": "Activity1",
    "activityCategory": "Risk",
    "date": "12/01/2022",
    "subActivities" : "Risk",
    "RPN":  "",
    "XXX" : "",
    "YYY" : "",
    "SPOC" : "",
    "mappingActivityId": 6
  },
  {
    "activityId": 8,
    "sNo":6,
    "activity": "Activity1",
    "activityCategory": "Risk",
    "date": "12/01/2022",
    "subActivities" : "Risk",
    "RPN":  "",
    "XXX" : "",
    "YYY" : "",
    "SPOC" : "",
    "mappingActivityId": null
  },
  {
    "activityId": 9,
    "sNo":7,
    "activity": "Activity1",
    "activityCategory": "Risk",
    "date": "12/01/2022",
    "subActivities" : "Risk",
    "RPN":  "",
    "XXX" : "",
    "YYY" : "",
    "SPOC" : "",
    "mappingActivityId": null
  },
  {
    "activityId": 10,
    "sNo":8,
    "activity": "Activity1",
    "activityCategory": "Risk",
    "date": "12/01/2022",
    "subActivities" : "Risk",
    "RPN":  "",
    "XXX" : "",
    "YYY" : "",
    "SPOC" : "",
    "mappingActivityId": null
  },
  {
    "activityId": 10,
    "sNo":8,
    "activity": "Activity1",
    "activityCategory": "Risk",
    "date": "12/01/2022",
    "subActivities" : "Risk",
    "RPN":  "",
    "XXX" : "",
    "YYY" : "",
    "SPOC" : "",
    "mappingActivityId": null
  },
  {
    "activityId": 10,
    "sNo":8,
    "activity": "Activity1",
    "activityCategory": "Risk",
    "date": "12/01/2022",
    "subActivities" : "Risk",
    "RPN":  "",
    "XXX" : "",
    "YYY" : "",
    "SPOC" : "",
    "mappingActivityId": null
  },
  {
    "activityId": 10,
    "sNo":8,
    "activity": "Activity1",
    "activityCategory": "Risk",
    "date": "12/01/2022",
    "subActivities" : "Risk",
    "RPN":  "",
    "XXX" : "",
    "YYY" : "",
    "SPOC" : "",
    "mappingActivityId": null
  },
  {
    "activityId": 10,
    "sNo":8,
    "activity": "Activity1",
    "activityCategory": "Risk",
    "date": "12/01/2022",
    "subActivities" : "Risk",
    "RPN":  "",
    "XXX" : "",
    "YYY" : "",
    "SPOC" : "",
    "mappingActivityId": null
  }
]
